time;type;message
1654729255.3448844;INFO;Received new zone object with ID sample_zone!
1654729255.5037699;WARNING;Warning: One trajectory generation iteration took more than 0.100s (Actual calculation time: 0.159s)
1654729255.6194577;WARNING;Warning: One trajectory generation iteration took more than 0.100s (Actual calculation time: 0.116s)
1654729255.836255;WARNING;Warning: One trajectory generation iteration took more than 0.100s (Actual calculation time: 0.217s)
1654729255.940344;WARNING;Warning: One trajectory generation iteration took more than 0.100s (Actual calculation time: 0.104s)
1654729256.0443707;WARNING;Warning: One trajectory generation iteration took more than 0.100s (Actual calculation time: 0.104s)
1654729256.1610172;WARNING;Warning: One trajectory generation iteration took more than 0.100s (Actual calculation time: 0.117s)
1654729256.274673;WARNING;Warning: One trajectory generation iteration took more than 0.100s (Actual calculation time: 0.114s)
1654729256.385267;WARNING;Warning: One trajectory generation iteration took more than 0.100s (Actual calculation time: 0.111s)
1654729256.4992228;WARNING;Warning: One trajectory generation iteration took more than 0.100s (Actual calculation time: 0.114s)
1654729256.6141617;WARNING;Warning: One trajectory generation iteration took more than 0.100s (Actual calculation time: 0.115s)
1654729256.7266486;WARNING;Warning: One trajectory generation iteration took more than 0.100s (Actual calculation time: 0.112s)
1654729256.8957598;WARNING;Warning: One trajectory generation iteration took more than 0.100s (Actual calculation time: 0.169s)
1654729257.0092902;WARNING;Warning: One trajectory generation iteration took more than 0.100s (Actual calculation time: 0.114s)
1654729257.1182728;WARNING;Warning: One trajectory generation iteration took more than 0.100s (Actual calculation time: 0.109s)
1654729257.230033;WARNING;Warning: One trajectory generation iteration took more than 0.100s (Actual calculation time: 0.112s)
1654729257.3410754;WARNING;Warning: One trajectory generation iteration took more than 0.100s (Actual calculation time: 0.111s)
1654729257.454723;WARNING;Warning: One trajectory generation iteration took more than 0.100s (Actual calculation time: 0.114s)
1654729257.5670242;WARNING;Warning: One trajectory generation iteration took more than 0.100s (Actual calculation time: 0.112s)
1654729257.6817849;WARNING;Warning: One trajectory generation iteration took more than 0.100s (Actual calculation time: 0.115s)
1654729257.7912405;WARNING;Warning: One trajectory generation iteration took more than 0.100s (Actual calculation time: 0.109s)
1654729257.9616787;WARNING;Warning: One trajectory generation iteration took more than 0.100s (Actual calculation time: 0.170s)
1654729258.071306;WARNING;Warning: One trajectory generation iteration took more than 0.100s (Actual calculation time: 0.110s)
1654729258.1822321;WARNING;Warning: One trajectory generation iteration took more than 0.100s (Actual calculation time: 0.111s)
1654729258.296266;WARNING;Warning: One trajectory generation iteration took more than 0.100s (Actual calculation time: 0.114s)
1654729258.41576;WARNING;Warning: One trajectory generation iteration took more than 0.100s (Actual calculation time: 0.119s)
1654729258.5313585;WARNING;Warning: One trajectory generation iteration took more than 0.100s (Actual calculation time: 0.116s)
1654729258.6451476;WARNING;Warning: One trajectory generation iteration took more than 0.100s (Actual calculation time: 0.114s)
1654729258.7473097;WARNING;Warning: One trajectory generation iteration took more than 0.100s (Actual calculation time: 0.102s)
1654729258.8475296;WARNING;Warning: One trajectory generation iteration took more than 0.100s (Actual calculation time: 0.100s)
1654729259.4195452;WARNING;Warning: One trajectory generation iteration took more than 0.100s (Actual calculation time: 0.100s)
1654729259.6853266;WARNING;Warning: One trajectory generation iteration took more than 0.100s (Actual calculation time: 0.175s)
1654729259.7966106;WARNING;Warning: One trajectory generation iteration took more than 0.100s (Actual calculation time: 0.111s)
1654729259.9109375;WARNING;Warning: One trajectory generation iteration took more than 0.100s (Actual calculation time: 0.114s)
1654729260.0286818;WARNING;Warning: One trajectory generation iteration took more than 0.100s (Actual calculation time: 0.118s)
1654729260.1422079;WARNING;Warning: One trajectory generation iteration took more than 0.100s (Actual calculation time: 0.114s)
1654729260.2533205;WARNING;Warning: One trajectory generation iteration took more than 0.100s (Actual calculation time: 0.111s)
1654729260.3642457;WARNING;Warning: One trajectory generation iteration took more than 0.100s (Actual calculation time: 0.111s)
1654729260.476657;WARNING;Warning: One trajectory generation iteration took more than 0.100s (Actual calculation time: 0.112s)
1654729260.5891583;WARNING;Warning: One trajectory generation iteration took more than 0.100s (Actual calculation time: 0.113s)
1654729260.6963217;WARNING;Warning: One trajectory generation iteration took more than 0.100s (Actual calculation time: 0.107s)
1654729260.8794467;WARNING;Warning: One trajectory generation iteration took more than 0.100s (Actual calculation time: 0.183s)
1654729261.266214;WARNING;Warning: One trajectory generation iteration took more than 0.100s (Actual calculation time: 0.101s)
1654729261.3855262;WARNING;Warning: One trajectory generation iteration took more than 0.100s (Actual calculation time: 0.119s)
1654729261.4913294;WARNING;Warning: One trajectory generation iteration took more than 0.100s (Actual calculation time: 0.106s)
1654729262.1672695;WARNING;Warning: One trajectory generation iteration took more than 0.100s (Actual calculation time: 0.101s)
1654729262.2773025;WARNING;Warning: One trajectory generation iteration took more than 0.100s (Actual calculation time: 0.110s)
1654729262.3911238;WARNING;Warning: One trajectory generation iteration took more than 0.100s (Actual calculation time: 0.114s)
1654729262.4993594;WARNING;Warning: One trajectory generation iteration took more than 0.100s (Actual calculation time: 0.108s)
1654729262.686187;WARNING;Warning: One trajectory generation iteration took more than 0.100s (Actual calculation time: 0.187s)
1654729262.795323;WARNING;Warning: One trajectory generation iteration took more than 0.100s (Actual calculation time: 0.109s)
1654729262.9073422;WARNING;Warning: One trajectory generation iteration took more than 0.100s (Actual calculation time: 0.112s)
1654729263.0100403;WARNING;Warning: One trajectory generation iteration took more than 0.100s (Actual calculation time: 0.103s)
1654729263.1129513;WARNING;Warning: One trajectory generation iteration took more than 0.100s (Actual calculation time: 0.103s)
1654729263.502681;WARNING;Warning: One trajectory generation iteration took more than 0.100s (Actual calculation time: 0.103s)
1654729263.8943188;WARNING;Warning: One trajectory generation iteration took more than 0.100s (Actual calculation time: 0.104s)
1654729264.0984552;WARNING;Warning: One trajectory generation iteration took more than 0.100s (Actual calculation time: 0.106s)
1654729264.2904868;WARNING;Warning: One trajectory generation iteration took more than 0.100s (Actual calculation time: 0.100s)
1654729264.4895735;WARNING;Warning: One trajectory generation iteration took more than 0.100s (Actual calculation time: 0.107s)
1654729265.0034778;WARNING;Warning: One trajectory generation iteration took more than 0.100s (Actual calculation time: 0.132s)
1654729266.6294136;WARNING;Warning: One trajectory generation iteration took more than 0.100s (Actual calculation time: 0.145s)
1654729268.4930358;WARNING;Warning: One trajectory generation iteration took more than 0.100s (Actual calculation time: 0.144s)
